{
  "type": "service_account",
  "project_id": "artexplorer-fa168",
  "private_key_id": "bb3fe1310ea84520ee4b72049f722d2a49b9e77f",
  "private_key": "-----BEGIN PRIVATE KEY-----\nMIIEvQIBADANBgkqhkiG9w0BAQEFAASCBKcwggSjAgEAAoIBAQCWu6TEkf3gWdQw\nW0UobiLL48WOndfFHuE+vTCWl2VN7qpwW+2B5AH/FGHq12CbzoMbz4xn2Mokey3V\ncWAP0qOQ1GqH6lPnRIrP142eGn6e2Wio9+1iRo5hLAMWHQD6hojDaDhdseoBn04B\nCApvn/9gWebWwEl3xc/Tm2+fkr1UjdRPf6gnqMiKeEGJn+Xp1yzmVQPwpdeqiwLY\n1sdrmT5DfIeBzjw31wvQciVzNE4xIpr9R+I0lsr78jYa0nsQIC4rrA2/IuwYtGPG\nCgGktnUFaW9eHnd4BME1SPqCsKa64AGTTu0AyDtj/zo5ww947cVq2PClUiVirGq3\ngXpyPJMHAgMBAAECggEABreQ9aON3TgTkR4YHF+gFFbvoFXfXizsm7ehmSxg+tKW\nbNBj6qRnBF97p5P2far7w7sBhkUuaObGWZsmTT41RMh6gNkL6SPwTafM601B9EE6\n/UCjJvx+7syfzJX5S7DAGnkj/eTmSTE4sCoUEPpfzoLjGxHRlFFP3B2yoTlQT5q6\n5jsR9Xn8M7K/ru8eEh/b9iwZYyNzGfnQvJkGNv6rLLxBAFcRdeKwnTNdUOOO5EZl\n029my2HM1DWroNXslmcC9qHWNmbeiDaTTZggsP5ERr+aGZWEPlGxSS++lGJd4qcq\nT1HG5Zhu9mQNSJnniGDI1UYRsc0qBR1DXJ8rtP/CxQKBgQDJzOLUR9cTEYJQhk4A\n9zWKT104YW2cH7HiuZoNfJYa7u7/ds6fPhxyghIY+lSRD/oHFlEynOmLy++FPYVk\ni0wSQUluaGfgO3y8aP/B2G2BvMas85eFY8ND/3q6N/hXe0BGUz0i53lOObvdh9x/\nhRjsqb9MDBC6IBL0PWV+CXzsywKBgQC/N4moevnAi4EbKNqucr9BYE8YdPsde5pu\nwdxG7VAsR5YDaS3TU5A3lD00M7lojk8YA8hW50Kja+xwvk9fruUVENcLIpFqWa4I\nNWzs0h4mhHjJD8rwKkNdUFzjaKjFUdodHqo0ZKnolBtU7Iay0JwSHsT4RyJREgNa\nhlWii/IHNQKBgQCmxLtv0y7ag02+Xj94bNPCSXQwc9Oxgj/vrpKxMpSaDXtVg0me\nMCYyO2vZWIcqmpl14euYeDRJY2++HOlv/e4P6ARXSdEObhrXWa6C8+kLnoZRx70g\nbyGfwDIcUsTZBvJHK+MKRWDqVKv8l5qRh9zhOCbvIclxB7CiR1ronc6voQKBgAUA\nPNdtL+77NwswzFdXpOzeyfLHzHF+9BEFfO9V8YzW6nN4YrxuKQ1rERa2a5jyb9se\n7jRno/SGNA7Wy1ijSFZ+tEEUTF1NryGD1C91Z1h2inonsZUKZeyg120TJabTdzLf\nxG/OWis9BGH6NaOjlRFcQKaFpb4dDH1nmgHASzopAoGAQfWQGUfiPbEHnWZxO3IV\ntJBdVDAoQeyiXGQvCnB/zolPqNkHG57ZdXkUix4rdF8qLX227r3fVNJUBeHJceEP\nZErQzJ6pss5c/dVURzpxckUpg3pJZ84A8qxq8NT4EOl5vPyvqjEnpG9e7ronwmgM\nmAYecGnAGQjr7R8SYdRmaSM=\n-----END PRIVATE KEY-----\n",
  "client_email": "firebase-adminsdk-q5zil@artexplorer-fa168.iam.gserviceaccount.com",
  "client_id": "107606380261938959454",
  "auth_uri": "https://accounts.google.com/o/oauth2/auth",
  "token_uri": "https://oauth2.googleapis.com/token",
  "auth_provider_x509_cert_url": "https://www.googleapis.com/oauth2/v1/certs",
  "client_x509_cert_url": "https://www.googleapis.com/robot/v1/metadata/x509/firebase-adminsdk-q5zil%40artexplorer-fa168.iam.gserviceaccount.com",
  "universe_domain": "googleapis.com"
}
